…
The function `walk_melb()` specifies the starting and ending dates to be
pulled, whereas `run_melb()` requires years to define the time frame. If
a selection of sensors are of interest, `run_melb()` provides the
flexibility for sensor choices.

``` r
library(rwalkr)
start_date <- as.Date("2017-07-01")
ped_walk <- walk_melb(from = start_date, to = start_date + 6L)
ped_walk
#> # A tibble: 7,224 x 5
#>   Sensor                     Date_Time           Date        Time Count
#>   <chr>                      <dttm>              <date>     <int> <int>
#> 1 Bourke Street Mall (North) 2017-07-01 00:00:00 2017-07-01     0   280
#> 2 Bourke Street Mall (South) 2017-07-01 00:00:00 2017-07-01     0   177
#> 3 Melbourne Central          2017-07-01 00:00:00 2017-07-01     0   826
#> 4 Town Hall (West)           2017-07-01 00:00:00 2017-07-01     0   682
#> 5 Princes Bridge             2017-07-01 00:00:00 2017-07-01     0     0
#> # ... with 7,219 more rows
…
