API to Melbourne Pedestrian Data • rwalkr
…
Usage

APIs

There are two APIs available to access hourly Melbourne pedestrian data: compedapi and Socrata. The former drives the melb_walk() function, where counts are uploaded on a daily basis; the latter powers the melb_walk_fast() function, where counts are uploaded on a monthly basis. Given the function names, the function melb_walk_fast() pulls the data at a much faster speed than melb_walk().

The function melb_walk() specifies the starting and ending dates to be pulled, whereas melb_walk_fast() requires years to define the time frame. If a selection of sensors are of interest, melb_walk_fast() provides the flexibility for sensor choices.

library(rwalkr)
start_date <- as.Date("2017-07-01")
ped_walk <- melb_walk(from = start_date, to = start_date + 6L)
ped_walk
#> # A tibble: 7,224 x 5
#>   Sensor                     Date_Time           Date        Time Count
#>   <chr>                      <dttm>              <date>     <int> <int>
#> 1 Bourke Street Mall (North) 2017-07-01 00:00:00 2017-07-01     0   280
#> 2 Bourke Street Mall (South) 2017-07-01 00:00:00 2017-07-01     0   177
#> 3 Melbourne Central          2017-07-01 00:00:00 2017-07-01     0   826
#> 4 Town Hall (West)           2017-07-01 00:00:00 2017-07-01     0   682
#> 5 Princes Bridge             2017-07-01 00:00:00 2017-07-01     0     0
#> # … with 7,219 more rows
…
